{
  "images" : [
    {
      "filename" : "595954e7-1e36-4c99-a4c6-1ba7ca0c10cb.png",
      "idiom" : "universal"
    }
  ],
  "info" : {
    "author" : "xcode",
    "version" : 1
  },
  "properties" : {
    "template-rendering-intent" : "template"
  }
}
