{
  "images" : [
    {
      "filename" : "ce4a351c-18cd-419d-8b53-b083e57e0284.png",
      "idiom" : "universal"
    }
  ],
  "info" : {
    "author" : "xcode",
    "version" : 1
  },
  "properties" : {
    "template-rendering-intent" : "template"
  }
}
