{
  "images" : [
    {
      "filename" : "83882f7e-32c2-4fd3-ad11-f9306d6a1d27.png",
      "idiom" : "universal"
    }
  ],
  "info" : {
    "author" : "xcode",
    "version" : 1
  },
  "properties" : {
    "template-rendering-intent" : "template"
  }
}
